%YAML 1.1
%TAG !u! tag:unity3d.com,2011:
--- !u!1001 &1476622275623500692
PrefabInstance:
  m_ObjectHideFlags: 0
  serializedVersion: 2
  m_Modification:
    m_TransformParent: {fileID: 0}
    m_Modifications:
    - target: {fileID: 3804088228178630850, guid: 2f2e8baddf6f4454ba83bb167243517f, type: 3}
      propertyPath: m_RootOrder
      value: 0
      objectReference: {fileID: 0}
    - target: {fileID: 3804088228178630850, guid: 2f2e8baddf6f4454ba83bb167243517f, type: 3}
      propertyPath: m_LocalEulerAnglesHint.x
      value: 0
      objectReference: {fileID: 0}
    - target: {fileID: 3804088228178630850, guid: 2f2e8baddf6f4454ba83bb167243517f, type: 3}
      propertyPath: m_LocalEulerAnglesHint.y
      value: 0
      objectReference: {fileID: 0}
    - target: {fileID: 3804088228178630850, guid: 2f2e8baddf6f4454ba83bb167243517f, type: 3}
      propertyPath: m_LocalEulerAnglesHint.z
      value: 0
      objectReference: {fileID: 0}
    - target: {fileID: 3804088228178630909, guid: 2f2e8baddf6f4454ba83bb167243517f, type: 3}
      propertyPath: m_Name
      value: 6 Purple Enemy
      objectReference: {fileID: 0}
    - target: {fileID: 5137803791630854147, guid: 2f2e8baddf6f4454ba83bb167243517f, type: 3}
      propertyPath: m_IsActive
      value: 0
      objectReference: {fileID: 0}
    - target: {fileID: 7959206775487402475, guid: 2f2e8baddf6f4454ba83bb167243517f, type: 3}
      propertyPath: m_Enabled
      value: 0
      objectReference: {fileID: 0}
    m_RemovedComponents: []
  m_SourcePrefab: {fileID: 100100000, guid: 2f2e8baddf6f4454ba83bb167243517f, type: 3}
